# Fdb version 3
["pdflatex"] 1633677369 "/home/franks/mitschriften/ITK1/itk.tex" "/home/franks/mitschriften/ITK1/itk.pdf" "itk" 1633677371
  "/home/franks/.texlive/texmf-var/fonts/pk/ljfour/public/cm/cmbx12.600pk" 1633676563 14156 0633021fe84952980fb0d6c8657ace04 ""
  "/home/franks/.texlive/texmf-var/fonts/pk/ljfour/public/cm/cmbx12.720pk" 1633676560 17912 0dd7236bf911103d0dfbf0ac16f5eca5 ""
  "/home/franks/.texlive/texmf-var/fonts/pk/ljfour/public/cm/cmbx12.864pk" 1633676565 22076 ef9b54139efa6f6cfa112a113a9830cb ""
  "/home/franks/.texlive/texmf-var/fonts/pk/ljfour/public/cm/cmex10.720pk" 1633676549 17556 51d4e2158c0e0b7c16bee43243f585f3 ""
  "/home/franks/.texlive/texmf-var/fonts/pk/ljfour/public/cm/cmmi12.600pk" 1633676558 17936 ce83c18fddc078b63688de9521eb3860 ""
  "/home/franks/.texlive/texmf-var/fonts/pk/ljfour/public/cm/cmmi6.600pk" 1633676845 8336 f161072b2961b5278474b82a32ca68bf ""
  "/home/franks/.texlive/texmf-var/fonts/pk/ljfour/public/cm/cmmi8.600pk" 1633676555 11680 e4fc489c8a561ee3d3e69c2027e15bff ""
  "/home/franks/.texlive/texmf-var/fonts/pk/ljfour/public/cm/cmr12.720pk" 1633676568 15944 eee8f6a5ead9f1fd5d2b437eb929145e ""
  "/home/franks/.texlive/texmf-var/fonts/pk/ljfour/public/cm/cmr17.720pk" 1633676570 24512 fb98a3ddbdaaa02e734eabfff0d39ee5 ""
  "/home/franks/.texlive/texmf-var/fonts/pk/ljfour/public/cm/cmsy10.720pk" 1633676553 16448 74935a0604c50b56ca436d898c8be370 ""
  "/home/franks/.texlive/texmf-var/fonts/pk/ljfour/public/cm/cmsy8.600pk" 1633676546 11344 4a0232dea23c6367240341d43c693cb7 ""
  "/home/franks/.texlive/texmf-var/fonts/pk/ljfour/public/cm/cmti12.600pk" 1633676551 18324 c66210ce89eb03a05765e68aca47a0d5 ""
  "/home/franks/.texlive/texmf-var/web2c/pdftex/pdflatex.fmt" 1633676540 2812676 2e839e682f696dba68990e063a45a563 ""
  "/home/franks/mitschriften/ITK1/itk.aux" 1633677371 3172 a8358727c9f7f3f749f975d4f31cc7c6 ""
  "/home/franks/mitschriften/ITK1/itk.tex" 1633677367 7237 f107669abf6d02ea1bd0736d2c09fd22 ""
  "/usr/share/texmf-dist/fonts/map/fontname/texfonts.map" 1617738065 3524 cb3e574dea2d1052e39280babc910dc8 ""
  "/usr/share/texmf-dist/fonts/pk/ljfour/public/cm/dpi600/cmr12.pk" 1617738065 13144 0235be32b099c919a01c28a385c0ff86 ""
  "/usr/share/texmf-dist/fonts/pk/ljfour/public/cm/dpi600/cmr6.pk" 1617738065 6912 5186bb5c879a613d13dd75addf1aeb47 ""
  "/usr/share/texmf-dist/fonts/pk/ljfour/public/cm/dpi600/cmr8.pk" 1617738065 8868 6802580824d038b2553e8b2aaa199234 ""
  "/usr/share/texmf-dist/fonts/tfm/public/amsfonts/cmextra/cmex7.tfm" 1617738065 1004 54797486969f23fa377b128694d548df ""
  "/usr/share/texmf-dist/fonts/tfm/public/amsfonts/cmextra/cmex8.tfm" 1617738065 988 bdf658c3bfc2d96d3c8b02cfc1c94c20 ""
  "/usr/share/texmf-dist/fonts/tfm/public/cm/cmbx12.tfm" 1617738065 1324 c910af8c371558dc20f2d7822f66fe64 ""
  "/usr/share/texmf-dist/fonts/tfm/public/cm/cmex10.tfm" 1617738065 992 662f679a0b3d2d53c1b94050fdaa3f50 ""
  "/usr/share/texmf-dist/fonts/tfm/public/cm/cmmi12.tfm" 1617738065 1524 4414a8315f39513458b80dfc63bff03a ""
  "/usr/share/texmf-dist/fonts/tfm/public/cm/cmmi6.tfm" 1617738065 1512 f21f83efb36853c0b70002322c1ab3ad ""
  "/usr/share/texmf-dist/fonts/tfm/public/cm/cmmi8.tfm" 1617738065 1520 eccf95517727cb11801f4f1aee3a21b4 ""
  "/usr/share/texmf-dist/fonts/tfm/public/cm/cmr12.tfm" 1617738065 1288 655e228510b4c2a1abe905c368440826 ""
  "/usr/share/texmf-dist/fonts/tfm/public/cm/cmr17.tfm" 1617738065 1292 296a67155bdbfc32aa9c636f21e91433 ""
  "/usr/share/texmf-dist/fonts/tfm/public/cm/cmr6.tfm" 1617738065 1300 b62933e007d01cfd073f79b963c01526 ""
  "/usr/share/texmf-dist/fonts/tfm/public/cm/cmr8.tfm" 1617738065 1292 21c1c5bfeaebccffdb478fd231a0997d ""
  "/usr/share/texmf-dist/fonts/tfm/public/cm/cmss10.tfm" 1617738065 1316 b636689f1933f24d1294acdf6041daaa ""
  "/usr/share/texmf-dist/fonts/tfm/public/cm/cmss12.tfm" 1617738065 1324 37b971caf729d7edd9cbb9f9b0ea76eb ""
  "/usr/share/texmf-dist/fonts/tfm/public/cm/cmss8.tfm" 1617738065 1296 d77f431d10d47c8ea2cc18cf45346274 ""
  "/usr/share/texmf-dist/fonts/tfm/public/cm/cmsy10.tfm" 1617738065 1124 6c73e740cf17375f03eec0ee63599741 ""
  "/usr/share/texmf-dist/fonts/tfm/public/cm/cmsy6.tfm" 1617738065 1116 933a60c408fc0a863a92debe84b2d294 ""
  "/usr/share/texmf-dist/fonts/tfm/public/cm/cmsy8.tfm" 1617738065 1120 8b7d695260f3cff42e636090a8002094 ""
  "/usr/share/texmf-dist/fonts/tfm/public/cm/cmti12.tfm" 1617738065 1484 ed72f8f5cf654cda15ecc8e32bfcbee5 ""
  "/usr/share/texmf-dist/fonts/tfm/public/cm/cmtt10.tfm" 1617738065 768 1321e9409b4137d6fb428ac9dc956269 ""
  "/usr/share/texmf-dist/fonts/tfm/public/cm/cmtt12.tfm" 1617738065 772 9a936b7f5e2ff0557fce0f62822f0bbf ""
  "/usr/share/texmf-dist/fonts/tfm/public/cm/cmtt8.tfm" 1617738065 768 d7b9a2629a0c353102ad947dc9221d49 ""
  "/usr/share/texmf-dist/tex/context/base/mkii/supp-pdf.mkii" 1617738065 71627 94eb9990bed73c364d7f53f960cc8c5b ""
  "/usr/share/texmf-dist/tex/latex/amsmath/amsbsy.sty" 1617738065 2211 ca7ce284ab93c8eecdc6029dc5ccbd73 ""
  "/usr/share/texmf-dist/tex/latex/amsmath/amsgen.sty" 1617738065 4161 7f6eb9092061a11f87d08ed13515b48d ""
  "/usr/share/texmf-dist/tex/latex/amsmath/amsmath.sty" 1617738065 87353 2c21ff5f2e32e1bf714e600924d810db ""
  "/usr/share/texmf-dist/tex/latex/amsmath/amsopn.sty" 1617738065 4116 32e6abd27229755a83a8b7f18e583890 ""
  "/usr/share/texmf-dist/tex/latex/amsmath/amstext.sty" 1617738065 2432 8ff93b1137020e8f21930562a874ae66 ""
  "/usr/share/texmf-dist/tex/latex/base/article.cls" 1617738065 20145 aad8c3dd3bc36e260347b84002182bc2 ""
  "/usr/share/texmf-dist/tex/latex/base/inputenc.sty" 1617738065 5050 0d3b77275060ca09a40635b830c3c904 ""
  "/usr/share/texmf-dist/tex/latex/base/size12.clo" 1617738065 8450 6fd3588c0e9d06f6f56c6cf4f7246466 ""
  "/usr/share/texmf-dist/tex/latex/epstopdf-pkg/epstopdf-base.sty" 1617738065 13886 d1306dcf79a944f6988e688c1785f9ce ""
  "/usr/share/texmf-dist/tex/latex/graphics-cfg/graphics.cfg" 1617738065 1224 978390e9c2234eab29404bc21b268d1e ""
  "/usr/share/texmf-dist/tex/latex/graphics-def/pdftex.def" 1617738065 19103 48d29b6e2a64cb717117ef65f107b404 ""
  "/usr/share/texmf-dist/tex/latex/graphics/graphics.sty" 1617738065 18272 a8c6a275b34ab6717ceeb8fa04b104e2 ""
  "/usr/share/texmf-dist/tex/latex/graphics/graphicx.sty" 1617738065 7919 20fdfdd783821971c55bc8ee918cbe63 ""
  "/usr/share/texmf-dist/tex/latex/graphics/keyval.sty" 1617738065 2590 e3b24ff953e5b58d924f163d25380312 ""
  "/usr/share/texmf-dist/tex/latex/graphics/trig.sty" 1617738065 3976 d7fa7d81d2870d509d25b17d0245e735 ""
  "/usr/share/texmf-dist/tex/latex/l3backend/l3backend-pdftex.def" 1617738065 27164 3d5f7887a89df4eb2f6e86ba26ef3254 ""
  "/usr/share/texmf-dist/tex/latex/l3kernel/expl3.sty" 1617738065 6208 7497703c7e95fb22a69d3ed6f9024046 ""
  "/usr/share/texmf-dist/tex/latex/l3packages/l3keys2e/l3keys2e.sty" 1617738065 4614 3d280c6851211796f3b4f2310e7af080 ""
  "/usr/share/texmf-dist/tex/latex/l3packages/xparse/xparse-2020-10-01.sty" 1617738065 6195 8bc989fdf3bb45de5ab646a95bf3352b ""
  "/usr/share/texmf-dist/tex/latex/l3packages/xparse/xparse-generic.tex" 1617738065 80141 dd4859747b9d959c1acfee24fd462951 ""
  "/usr/share/texmf-dist/tex/latex/l3packages/xparse/xparse.sty" 1617738065 6289 682e18a28ebd34b27d72772c8a4cedcb ""
  "/usr/share/texmf-dist/tex/latex/latexconfig/epstopdf-sys.cfg" 1617738065 678 4792914a8f45be57bb98413425e4c7af ""
  "/usr/share/texmf-dist/tex/latex/siunitx/siunitx-abbreviations.cfg" 1617692618 4745 793d4d5a808c37a7085f620706b56fe1 ""
  "/usr/share/texmf-dist/tex/latex/siunitx/siunitx.sty" 1617692618 273389 9923841a848e8c7e6897940e0afa05e4 ""
  "/usr/share/texmf-dist/tex/latex/tools/array.sty" 1617738065 12675 9a7bbb9e485cd81cdcc1d56212b088ff ""
  "/usr/share/texmf-dist/tex/latex/translator/translator-basic-dictionary-English.dict" 1617738065 3535 7dc96051305a7e943219126c49c44cd6 ""
  "/usr/share/texmf-dist/tex/latex/translator/translator.sty" 1617738065 8765 3368c4a5a4b5466261cafb836195e916 ""
  "/usr/share/texmf-dist/web2c/texmf.cnf" 1617738065 39911 2da6c67557ec033436fe5418a70a8a61 ""
  "figures/Beispiel1.png" 1633675867 3949 a66d9636f3098b73a2bbc4409818711e ""
  "figures/Beispiel2.png" 1633675867 4660 80dfc2a78b257338b6874e13719748a9 ""
  "figures/analog.png" 1633675867 12435 1c7912ba052ef21dcf63222b49c3663a ""
  "figures/codierung.png" 1633675867 24070 2c76ae1c14dce0ee68c93c2cb8a132da ""
  "figures/digital.png" 1633675867 30344 da0eb467c9a82433abf81ac2ad38729c ""
  "figures/lineare_darstellung.png" 1633676386 3788 f0ad3f1d20669ca33377ce55f8440249 ""
  "figures/log_darstellung.png" 1633677269 4991 40ef01aa06c806ea3f7173710f5a50e7 ""
  "itk.aux" 1633677371 3172 a8358727c9f7f3f749f975d4f31cc7c6 "pdflatex"
  "itk.tex" 1633677367 7237 f107669abf6d02ea1bd0736d2c09fd22 ""
  "itk.toc" 1633677371 1331 75761202c2f417d48c554998ed511857 "pdflatex"
  (generated)
  "itk.log"
  "/home/franks/mitschriften/ITK1/itk.pdf"
  "itk.toc"
  "itk.pdf"
  "itk.aux"
  "/home/franks/mitschriften/ITK1/itk.log"
