\relax 
\@writefile{toc}{\contentsline {section}{\numberline {1}Codierung und Decodierung}{2}{}\protected@file@percent }
\@writefile{lof}{\contentsline {figure}{\numberline {1}{\ignorespaces Codierung}}{2}{}\protected@file@percent }
\newlabel{fig:codierung}{{1}{2}}
\@writefile{toc}{\contentsline {subsection}{\numberline {1.1}Quellencodierung}{2}{}\protected@file@percent }
\@writefile{toc}{\contentsline {subsubsection}{\numberline {1.1.1}Analoge Signale}{2}{}\protected@file@percent }
\@writefile{toc}{\contentsline {subsubsection}{\numberline {1.1.2}Digitale Signale}{2}{}\protected@file@percent }
\@writefile{lof}{\contentsline {figure}{\numberline {2}{\ignorespaces Analoges Signal}}{3}{}\protected@file@percent }
\newlabel{fig:analog}{{2}{3}}
\@writefile{lof}{\contentsline {figure}{\numberline {3}{\ignorespaces Digitales Signal}}{3}{}\protected@file@percent }
\newlabel{fig:digital}{{3}{3}}
\@writefile{toc}{\contentsline {subsection}{\numberline {1.2}Kanalcodierung}{4}{}\protected@file@percent }
\@writefile{toc}{\contentsline {subsection}{\numberline {1.3}Modulation}{4}{}\protected@file@percent }
\@writefile{toc}{\contentsline {subsection}{\numberline {1.4}übertragungskanal}{4}{}\protected@file@percent }
\@writefile{toc}{\contentsline {subsection}{\numberline {1.5}Demodulation}{4}{}\protected@file@percent }
\@writefile{toc}{\contentsline {subsection}{\numberline {1.6}Kanaldecodierung}{4}{}\protected@file@percent }
\@writefile{toc}{\contentsline {subsection}{\numberline {1.7}Quellendecodierung}{4}{}\protected@file@percent }
\@writefile{toc}{\contentsline {section}{\numberline {2}Logarithmische Skala}{5}{}\protected@file@percent }
\@writefile{toc}{\contentsline {section}{\numberline {3}Formeln und Beispielrechnungen}{5}{}\protected@file@percent }
\@writefile{toc}{\contentsline {subsection}{\numberline {3.1}Formeln}{5}{}\protected@file@percent }
\@writefile{toc}{\contentsline {subsection}{\numberline {3.2}Beispiele}{6}{}\protected@file@percent }
\@writefile{toc}{\contentsline {subsubsection}{\numberline {3.2.1}Beispiel 1}{6}{}\protected@file@percent }
\@writefile{lof}{\contentsline {figure}{\numberline {4}{\ignorespaces Beispiel 1}}{7}{}\protected@file@percent }
\newlabel{fig:bsp1}{{4}{7}}
\@writefile{lof}{\contentsline {figure}{\numberline {5}{\ignorespaces Beispiel 2}}{7}{}\protected@file@percent }
\newlabel{fig:bsp2}{{5}{7}}
\@writefile{toc}{\contentsline {subsubsection}{\numberline {3.2.2}Beispiel 2}{7}{}\protected@file@percent }
\@writefile{toc}{\contentsline {section}{\numberline {4}Ablesen und einzeichen von Werten in \\Darstellungen}{8}{}\protected@file@percent }
\@writefile{toc}{\contentsline {subsection}{\numberline {4.1}Lineare Darstellung}{8}{}\protected@file@percent }
\@writefile{lof}{\contentsline {figure}{\numberline {6}{\ignorespaces Lineare Darstelung}}{8}{}\protected@file@percent }
\newlabel{fig:lind}{{6}{8}}
\@writefile{toc}{\contentsline {subsection}{\numberline {4.2}Logarithmische Darstellung}{9}{}\protected@file@percent }
\@writefile{lof}{\contentsline {figure}{\numberline {7}{\ignorespaces Logarithmische Darstelung}}{9}{}\protected@file@percent }
\newlabel{fig:logd}{{7}{9}}
\gdef \@abspage@last{9}
